Isoformic: Isoform-level biological interpretation of transcriptomic data • isoformic
…
Profile Plot

Another good more quantifiable way to visualize this switch is using
the Transcript per Million Count of each transcript, compared to those
of the gene between the case and control conditions. For this we use a
profile plot that in one size plots the values of TPM for the case
conditions and in the other the value of the TPM for the control
conditions.

DEG_DET_table |>
  filter(!transcript_type %in% "gene")

## # A tibble: 70,870 × 9
##    id          log2FC  pvalue  qvalue name  transcript_type gene_name abs_log2FC
##    <chr>        <dbl>   <dbl>   <dbl> <chr> <chr>           <chr>          <dbl>
##  1 ENST000006…  0.640 3.11e-1 5.40e-1 ISG1… protein_coding  ISG15          0.640
##  2 ENST000003…  0.534 1.29e-2 7.07e-2 AGRN… protein_coding  AGRN           0.534
##  3 ENST000004… -0.530 5.81e-2 1.91e-1 AGRN… retained_intron AGRN           0.530
##  4 ENST000004…  1.83  1.66e-5 6.81e-4 RNF2… protein_coding  RNF223         1.83 
##  5 ENST000004…  0.415 2.20e-1 4.40e-1 TNFR… retained_intron TNFRSF4        0.415
##  6 ENST000003…  0.374 2.27e-1 4.48e-1 TNFR… protein_coding  TNFRSF4        0.374
##  7 ENST000003…  0.479 6.70e-2 2.09e-1 TAS1… protein_coding  TAS1R3         0.479
##  8 ENST000003…  0.217 3.82e-1 6.06e-1 DVL1… protein_coding  DVL1           0.217
##  9 ENST000003…  0.570 8.12e-2 2.37e-1 DVL1… protein_coding  DVL1           0.570
## 10 ENST000006…  1.91  4.34e-1 6.52e-1 DVL1… protein_coding  DVL1           1.91 
## # ℹ 70,860 more rows
## # ℹ 1 more variable: significance <chr>
…
exon_df <- prepare_exon_annotation(
  # gene_name = "RBPJ",
  gene_name = "FLT1",
  file_path = "data-raw/gencode.v34.annotation.gff3.gz",
  file_type = "gff"
)

This will be the table used for plotting

exon_df

## # A tibble: 126 × 5
##    exon_left exon_right strand tx_id             tx_name
##    <chr>     <chr>      <chr>  <chr>             <chr>  
##  1 28494780  28495128   -      ENST00000282397.9 FLT1   
##  2 28467521  28467617   -      ENST00000282397.9 FLT1   
##  3 28466903  28467129   -      ENST00000282397.9 FLT1   
##  4 28438221  28438345   -      ENST00000282397.9 FLT1   
##  5 28434058  28434220   -      ENST00000282397.9 FLT1   
##  6 28433819  28433955   -      ENST00000282397.9 FLT1   
##  7 28431136  28431310   -      ENST00000282397.9 FLT1   
##  8 28430050  28430167   -      ENST00000282397.9 FLT1   
##  9 28427752  28427921   -      ENST00000282397.9 FLT1   
## 10 28427159  28427318   -      ENST00000282397.9 FLT1   
## # ℹ 116 more rows
…
