Preprocessing Short-Read Sequencing Files for Isoformic • isoformic
…
# run Swish
y <- fishpond::swish(y, x = "condition")

dea_tx_res <- mcols(y) |>
  base::as.data.frame() |>
  tibble::rownames_to_column("transcript_id") |>
  tibble::as_tibble()

iso@dea$det <- dea_tx_res

de_tx(iso)
#> # A tibble: 111 × 9
#>    transcript_id      log10mean keep   stat log2FC pvalue locfdr qvalue det_sig
#>    <chr>                  <dbl> <lgl> <dbl>  <dbl>  <dbl>  <dbl>  <dbl> <chr>  
#>  1 ENST00000263341.7       3.59 TRUE   3.25   6.63 0.0804  0.574  0.258 no     
#>  2 ENST00000651122.1       2.72 TRUE   3.5    4.91 0.0627  0.498  0.258 no     
#>  3 ENST00000306602.3       2.44 TRUE  -3.3   -3.75 0.0754  0.553  0.258 no     
#>  4 ENST00000392322.7       2.61 TRUE   2.45   2.62 0.179   0.912  0.466 no     
#>  5 ENST00000698141.1       2.45 TRUE   2      2.24 0.287   1      0.575 no     
#>  6 ENST00000697958.1       2.52 TRUE  -3.65  -2.01 0.0488  0.434  0.258 no     
#>  7 ENST00000673858.1       2.18 TRUE   2.1    1.98 0.266   1      0.575 no     
#>  8 ENST00000367468.10      2.92 TRUE   1.85   1.82 0.342   1      0.634 no     
#>  9 ENST00000557389.1       2.75 TRUE  -3.85  -1.67 0.0438  0.410  0.258 no     
#> 10 ENST00000330871.3       3.57 TRUE   1.5    1.63 0.423   1      0.648 no     
#> # ℹ 101 more rows
…
