Isoformic: Isoform-level biological interpretation of transcriptomic data • isoformic
…
PE1_DETs_final <- is_deg_sig(DEGs_sig_joined$transcript_name, PE1_DETs)
PE1_DETs_final <- PE1_DETs_final |>
  left_join(transcript_gene_join, by = "transcript_name")

And now we have all the tables we will need for all graphs and analyses.

One detail is that the DET final table now allows us to see genes whose transcripts are differentially expressed but their genes are not with a simple dplyr filter.

DETs_not_DEGs <- PE1_DETs_final |>
  filter(pvalue < 0.05, abs(log2FC) > 1, DEG_sig == "NO")

DETs_not_DEGs |>
  dplyr::arrange(qvalue)
#> # A tibble: 3,882 × 8
#>    transcript_id  transcript_name transcript_type log2FC  pvalue  qvalue DEG_sig
#>    <chr>          <chr>           <chr>            <dbl>   <dbl>   <dbl> <chr>  
#>  1 ENST000004691… PLA2G2A-204     processed_tran…  -3.24 1.38e-7 2.36e-5 NO     
#>  2 ENST000003155… CDC42-201       protein_coding    2.33 1.38e-7 2.36e-5 NO     
#>  3 ENST000003743… NIPAL3-204      protein_coding   -1.21 1.38e-7 2.36e-5 NO     
#>  4 ENST000004809… TMEM50A-203     processed_tran…   1.67 1.38e-7 2.36e-5 NO     
#>  5 ENST000004738… MAN1C1-204      processed_tran…   1.18 1.38e-7 2.36e-5 NO     
#>  6 ENST000004965… MAN1C1-207      processed_tran…   1.49 1.38e-7 2.36e-5 NO     
#>  7 ENST000004557… STMN1-206       protein_coding    1.01 1.38e-7 2.36e-5 NO     
#>  8 ENST000003742… STMN1-202       protein_coding   -2.75 1.38e-7 2.36e-5 NO     
#>  9 ENST000003599… PTPRF-201       protein_coding    1.81 1.38e-7 2.36e-5 NO     
#> 10 ENST000004641… NASP-207        retained_intron   1.60 1.38e-7 2.36e-5 NO     
#> # ℹ 3,872 more rows
#> # ℹ 1 more variable: gene_name <chr>
…
